[44083218ns] ERROR: op: 0, x: 1, y: -512, 
                     ExpError: 0 HwErr: 1, Exp Result:-512 Hw Res:-1, 
                     Exp Rem: 0 Hw Rem: -1 
[44169150ns] ERROR: op: 0, x: 2, y: -512, 
                     ExpError: 1 HwErr: 0, Exp Result:-1 Hw Res:0, 
                     Exp Rem: 0 Hw Rem: -1 
[87951466], op: 1, x: -512, y: -1,    ExpError: 0 HwErr: 0,    Exp Result: 512 Hw Res:-512,    Exp Rem: 0 Hw Rem: 0 
[87951506], op: 1, x: -512, y: 0,    ExpError: 1 HwErr: 1,    Exp Result: -1 Hw Res:-1,    Exp Rem: -1 Hw Rem: 0 
[88037394], op: 1, x: -511, y: 0,    ExpError: 1 HwErr: 1,    Exp Result: -1 Hw Res:-1,    Exp Rem: -1 Hw Rem: 0 
[88123282], op: 1, x: -510, y: 0,    ExpError: 1 HwErr: 1,    Exp Result: -1 Hw Res:-1,    Exp Rem: -1 Hw Rem: 0 
[88209170], op: 1, x: -509, y: 0,    ExpError: 1 HwErr: 1,    Exp Result: -1 Hw Res:-1,    Exp Rem: -1 Hw Rem: 0 
[88295058], op: 1, x: -508, y: 0,    ExpError: 1 HwErr: 1,    Exp Result: -1 Hw Res:-1,    Exp Rem: -1 Hw Rem: 0 
[88380946], op: 1, x: -507, y: 0,    ExpError: 1 HwErr: 1,    Exp Result: -1 Hw Res:-1,    Exp Rem: -1 Hw Rem: 0 
[88466834], op: 1, x: -506, y: 0,    ExpError: 1 HwErr: 1,    Exp Result: -1 Hw Res:-1,    Exp Rem: -1 Hw Rem: 0 
[88552722], op: 1, x: -505, y: 0,    ExpError: 1 HwErr: 1,    Exp Result: -1 Hw Res:-1,    Exp Rem: -1 Hw Rem: 0 
[88638610], op: 1, x: -504, y: 0,    ExpError: 1 HwErr: 1,    Exp Result: -1 Hw Res:-1,    Exp Rem: -1 Hw Rem: 0 
[88724498], op: 1, x: -503, y: 0,    ExpError: 1 HwErr: 1,    Exp Result: -1 Hw Res:-1,    Exp Rem: -1 Hw Rem: 0 
[88810386], op: 1, x: -502, y: 0,    ExpError: 1 HwErr: 1,    Exp Result: -1 Hw Res:-1,    Exp Rem: -1 Hw Rem: 0 
[88896274], op: 1, x: -501, y: 0,    ExpError: 1 HwErr: 1,    Exp Result: -1 Hw Res:-1,    Exp Rem: -1 Hw Rem: 0 
[88982162], op: 1, x: -500, y: 0,    ExpError: 1 HwErr: 1,    Exp Result: -1 Hw Res:-1,    Exp Rem: -1 Hw Rem: 0 
[89068050], op: 1, x: -499, y: 0,    ExpError: 1 HwErr: 1,    Exp Result: -1 Hw Res:-1,    Exp Rem: -1 Hw Rem: 0 
[89153938], op: 1, x: -498, y: 0,    ExpError: 1 HwErr: 1,    Exp Result: -1 Hw Res:-1,    Exp Rem: -1 Hw Rem: 0 
[89239826], op: 1, x: -497, y: 0,    ExpError: 1 HwErr: 1,    Exp Result: -1 Hw Res:-1,    Exp Rem: -1 Hw Rem: 0 
[89325714], op: 1, x: -496, y: 0,    ExpError: 1 HwErr: 1,    Exp Result: -1 Hw Res:-1,    Exp Rem: -1 Hw Rem: 0 
[89411602], op: 1, x: -495, y: 0,    ExpError: 1 HwErr: 1,    Exp Result: -1 Hw Res:-1,    Exp Rem: -1 Hw Rem: 0 
[89497490], op: 1, x: -494, y: 0,    ExpError: 1 HwErr: 1,    Exp Result: -1 Hw Res:-1,    Exp Rem: -1 Hw Rem: 0 
[89583378], op: 1, x: -493, y: 0,    ExpError: 1 HwErr: 1,    Exp Result: -1 Hw Res:-1,    Exp Rem: -1 Hw Rem: 0 
[89669266], op: 1, x: -492, y: 0,    ExpError: 1 HwErr: 1,    Exp Result: -1 Hw Res:-1,    Exp Rem: -1 Hw Rem: 0 
[89755154], op: 1, x: -491, y: 0,    ExpError: 1 HwErr: 1,    Exp Result: -1 Hw Res:-1,    Exp Rem: -1 Hw Rem: 0 
[89841042], op: 1, x: -490, y: 0,    ExpError: 1 HwErr: 1,    Exp Result: -1 Hw Res:-1,    Exp Rem: -1 Hw Rem: 0 
[89926930], op: 1, x: -489, y: 0,    ExpError: 1 HwErr: 1,    Exp Result: -1 Hw Res:-1,    Exp Rem: -1 Hw Rem: 0 
[90012818], op: 1, x: -488, y: 0,    ExpError: 1 HwErr: 1,    Exp Result: -1 Hw Res:-1,    Exp Rem: -1 Hw Rem: 0 
[90098706], op: 1, x: -487, y: 0,    ExpError: 1 HwErr: 1,    Exp Result: -1 Hw Res:-1,    Exp Rem: -1 Hw Rem: 0 
[90184594], op: 1, x: -486, y: 0,    ExpError: 1 HwErr: 1,    Exp Result: -1 Hw Res:-1,    Exp Rem: -1 Hw Rem: 0 
[90270482], op: 1, x: -485, y: 0,    ExpError: 1 HwErr: 1,    Exp Result: -1 Hw Res:-1,    Exp Rem: -1 Hw Rem: 0 
[90356370], op: 1, x: -484, y: 0,    ExpError: 1 HwErr: 1,    Exp Result: -1 Hw Res:-1,    Exp Rem: -1 Hw Rem: 0 
[90442258], op: 1, x: -483, y: 0,    ExpError: 1 HwErr: 1,    Exp Result: -1 Hw Res:-1,    Exp Rem: -1 Hw Rem: 0 
[90528146], op: 1, x: -482, y: 0,    ExpError: 1 HwErr: 1,    Exp Result: -1 Hw Res:-1,    Exp Rem: -1 Hw Rem: 0 
[90614034], op: 1, x: -481, y: 0,    ExpError: 1 HwErr: 1,    Exp Result: -1 Hw Res:-1,    Exp Rem: -1 Hw Rem: 0 
[90699922], op: 1, x: -480, y: 0,    ExpError: 1 HwErr: 1,    Exp Result: -1 Hw Res:-1,    Exp Rem: -1 Hw Rem: 0 
[90785810], op: 1, x: -479, y: 0,    ExpError: 1 HwErr: 1,    Exp Result: -1 Hw Res:-1,    Exp Rem: -1 Hw Rem: 0 
[90871698], op: 1, x: -478, y: 0,    ExpError: 1 HwErr: 1,    Exp Result: -1 Hw Res:-1,    Exp Rem: -1 Hw Rem: 0 
[90957586], op: 1, x: -477, y: 0,    ExpError: 1 HwErr: 1,    Exp Result: -1 Hw Res:-1,    Exp Rem: -1 Hw Rem: 0 
[91043474], op: 1, x: -476, y: 0,    ExpError: 1 HwErr: 1,    Exp Result: -1 Hw Res:-1,    Exp Rem: -1 Hw Rem: 0 
[91129362], op: 1, x: -475, y: 0,    ExpError: 1 HwErr: 1,    Exp Result: -1 Hw Res:-1,    Exp Rem: -1 Hw Rem: 0 
[91215250], op: 1, x: -474, y: 0,    ExpError: 1 HwErr: 1,    Exp Result: -1 Hw Res:-1,    Exp Rem: -1 Hw Rem: 0 
[91301138], op: 1, x: -473, y: 0,    ExpError: 1 HwErr: 1,    Exp Result: -1 Hw Res:-1,    Exp Rem: -1 Hw Rem: 0 
[91387026], op: 1, x: -472, y: 0,    ExpError: 1 HwErr: 1,    Exp Result: -1 Hw Res:-1,    Exp Rem: -1 Hw Rem: 0 
[91472914], op: 1, x: -471, y: 0,    ExpError: 1 HwErr: 1,    Exp Result: -1 Hw Res:-1,    Exp Rem: -1 Hw Rem: 0 
[91558802], op: 1, x: -470, y: 0,    ExpError: 1 HwErr: 1,    Exp Result: -1 Hw Res:-1,    Exp Rem: -1 Hw Rem: 0 
[91644690], op: 1, x: -469, y: 0,    ExpError: 1 HwErr: 1,    Exp Result: -1 Hw Res:-1,    Exp Rem: -1 Hw Rem: 0 
[91730578], op: 1, x: -468, y: 0,    ExpError: 1 HwErr: 1,    Exp Result: -1 Hw Res:-1,    Exp Rem: -1 Hw Rem: 0 
[91816466], op: 1, x: -467, y: 0,    ExpError: 1 HwErr: 1,    Exp Result: -1 Hw Res:-1,    Exp Rem: -1 Hw Rem: 0 
[91902354], op: 1, x: -466, y: 0,    ExpError: 1 HwErr: 1,    Exp Result: -1 Hw Res:-1,    Exp Rem: -1 Hw Rem: 0 
[91988242], op: 1, x: -465, y: 0,    ExpError: 1 HwErr: 1,    Exp Result: -1 Hw Res:-1,    Exp Rem: -1 Hw Rem: 0 
[92074130], op: 1, x: -464, y: 0,    ExpError: 1 HwErr: 1,    Exp Result: -1 Hw Res:-1,    Exp Rem: -1 Hw Rem: 0 
[92160018], op: 1, x: -463, y: 0,    ExpError: 1 HwErr: 1,    Exp Result: -1 Hw Res:-1,    Exp Rem: -1 Hw Rem: 0 
[92245906], op: 1, x: -462, y: 0,    ExpError: 1 HwErr: 1,    Exp Result: -1 Hw Res:-1,    Exp Rem: -1 Hw Rem: 0 
[92331794], op: 1, x: -461, y: 0,    ExpError: 1 HwErr: 1,    Exp Result: -1 Hw Res:-1,    Exp Rem: -1 Hw Rem: 0 
[92417682], op: 1, x: -460, y: 0,    ExpError: 1 HwErr: 1,    Exp Result: -1 Hw Res:-1,    Exp Rem: -1 Hw Rem: 0 
[92503570], op: 1, x: -459, y: 0,    ExpError: 1 HwErr: 1,    Exp Result: -1 Hw Res:-1,    Exp Rem: -1 Hw Rem: 0 
[92589458], op: 1, x: -458, y: 0,    ExpError: 1 HwErr: 1,    Exp Result: -1 Hw Res:-1,    Exp Rem: -1 Hw Rem: 0 
[92675346], op: 1, x: -457, y: 0,    ExpError: 1 HwErr: 1,    Exp Result: -1 Hw Res:-1,    Exp Rem: -1 Hw Rem: 0 
[92761234], op: 1, x: -456, y: 0,    ExpError: 1 HwErr: 1,    Exp Result: -1 Hw Res:-1,    Exp Rem: -1 Hw Rem: 0 
[92847122], op: 1, x: -455, y: 0,    ExpError: 1 HwErr: 1,    Exp Result: -1 Hw Res:-1,    Exp Rem: -1 Hw Rem: 0 
[92933010], op: 1, x: -454, y: 0,    ExpError: 1 HwErr: 1,    Exp Result: -1 Hw Res:-1,    Exp Rem: -1 Hw Rem: 0 
[93018898], op: 1, x: -453, y: 0,    ExpError: 1 HwErr: 1,    Exp Result: -1 Hw Res:-1,    Exp Rem: -1 Hw Rem: 0 
[93104786], op: 1, x: -452, y: 0,    ExpError: 1 HwErr: 1,    Exp Result: -1 Hw Res:-1,    Exp Rem: -1 Hw Rem: 0 
[93190674], op: 1, x: -451, y: 0,    ExpError: 1 HwErr: 1,    Exp Result: -1 Hw Res:-1,    Exp Rem: -1 Hw Rem: 0 
[93276562], op: 1, x: -450, y: 0,    ExpError: 1 HwErr: 1,    Exp Result: -1 Hw Res:-1,    Exp Rem: -1 Hw Rem: 0 
[93362450], op: 1, x: -449, y: 0,    ExpError: 1 HwErr: 1,    Exp Result: -1 Hw Res:-1,    Exp Rem: -1 Hw Rem: 0 
[93448338], op: 1, x: -448, y: 0,    ExpError: 1 HwErr: 1,    Exp Result: -1 Hw Res:-1,    Exp Rem: -1 Hw Rem: 0 
[93534226], op: 1, x: -447, y: 0,    ExpError: 1 HwErr: 1,    Exp Result: -1 Hw Res:-1,    Exp Rem: -1 Hw Rem: 0 
[93620114], op: 1, x: -446, y: 0,    ExpError: 1 HwErr: 1,    Exp Result: -1 Hw Res:-1,    Exp Rem: -1 Hw Rem: 0 
[93706002], op: 1, x: -445, y: 0,    ExpError: 1 HwErr: 1,    Exp Result: -1 Hw Res:-1,    Exp Rem: -1 Hw Rem: 0 
[93791890], op: 1, x: -444, y: 0,    ExpError: 1 HwErr: 1,    Exp Result: -1 Hw Res:-1,    Exp Rem: -1 Hw Rem: 0 
[93877778], op: 1, x: -443, y: 0,    ExpError: 1 HwErr: 1,    Exp Result: -1 Hw Res:-1,    Exp Rem: -1 Hw Rem: 0 
[93963666], op: 1, x: -442, y: 0,    ExpError: 1 HwErr: 1,    Exp Result: -1 Hw Res:-1,    Exp Rem: -1 Hw Rem: 0 
[94049554], op: 1, x: -441, y: 0,    ExpError: 1 HwErr: 1,    Exp Result: -1 Hw Res:-1,    Exp Rem: -1 Hw Rem: 0 
[94135442], op: 1, x: -440, y: 0,    ExpError: 1 HwErr: 1,    Exp Result: -1 Hw Res:-1,    Exp Rem: -1 Hw Rem: 0 
[94221330], op: 1, x: -439, y: 0,    ExpError: 1 HwErr: 1,    Exp Result: -1 Hw Res:-1,    Exp Rem: -1 Hw Rem: 0 
[94307218], op: 1, x: -438, y: 0,    ExpError: 1 HwErr: 1,    Exp Result: -1 Hw Res:-1,    Exp Rem: -1 Hw Rem: 0 
[94393106], op: 1, x: -437, y: 0,    ExpError: 1 HwErr: 1,    Exp Result: -1 Hw Res:-1,    Exp Rem: -1 Hw Rem: 0 
[94478994], op: 1, x: -436, y: 0,    ExpError: 1 HwErr: 1,    Exp Result: -1 Hw Res:-1,    Exp Rem: -1 Hw Rem: 0 
[94564882], op: 1, x: -435, y: 0,    ExpError: 1 HwErr: 1,    Exp Result: -1 Hw Res:-1,    Exp Rem: -1 Hw Rem: 0 
[94650770], op: 1, x: -434, y: 0,    ExpError: 1 HwErr: 1,    Exp Result: -1 Hw Res:-1,    Exp Rem: -1 Hw Rem: 0 
[94736658], op: 1, x: -433, y: 0,    ExpError: 1 HwErr: 1,    Exp Result: -1 Hw Res:-1,    Exp Rem: -1 Hw Rem: 0 
[94822546], op: 1, x: -432, y: 0,    ExpError: 1 HwErr: 1,    Exp Result: -1 Hw Res:-1,    Exp Rem: -1 Hw Rem: 0 
[94908434], op: 1, x: -431, y: 0,    ExpError: 1 HwErr: 1,    Exp Result: -1 Hw Res:-1,    Exp Rem: -1 Hw Rem: 0 
[94994322], op: 1, x: -430, y: 0,    ExpError: 1 HwErr: 1,    Exp Result: -1 Hw Res:-1,    Exp Rem: -1 Hw Rem: 0 
[95080210], op: 1, x: -429, y: 0,    ExpError: 1 HwErr: 1,    Exp Result: -1 Hw Res:-1,    Exp Rem: -1 Hw Rem: 0 
[95166098], op: 1, x: -428, y: 0,    ExpError: 1 HwErr: 1,    Exp Result: -1 Hw Res:-1,    Exp Rem: -1 Hw Rem: 0 
[95251986], op: 1, x: -427, y: 0,    ExpError: 1 HwErr: 1,    Exp Result: -1 Hw Res:-1,    Exp Rem: -1 Hw Rem: 0 
[95337874], op: 1, x: -426, y: 0,    ExpError: 1 HwErr: 1,    Exp Result: -1 Hw Res:-1,    Exp Rem: -1 Hw Rem: 0 
[95423762], op: 1, x: -425, y: 0,    ExpError: 1 HwErr: 1,    Exp Result: -1 Hw Res:-1,    Exp Rem: -1 Hw Rem: 0 
[95509650], op: 1, x: -424, y: 0,    ExpError: 1 HwErr: 1,    Exp Result: -1 Hw Res:-1,    Exp Rem: -1 Hw Rem: 0 
[95595538], op: 1, x: -423, y: 0,    ExpError: 1 HwErr: 1,    Exp Result: -1 Hw Res:-1,    Exp Rem: -1 Hw Rem: 0 
[95681426], op: 1, x: -422, y: 0,    ExpError: 1 HwErr: 1,    Exp Result: -1 Hw Res:-1,    Exp Rem: -1 Hw Rem: 0 
[95767314], op: 1, x: -421, y: 0,    ExpError: 1 HwErr: 1,    Exp Result: -1 Hw Res:-1,    Exp Rem: -1 Hw Rem: 0 
[95853202], op: 1, x: -420, y: 0,    ExpError: 1 HwErr: 1,    Exp Result: -1 Hw Res:-1,    Exp Rem: -1 Hw Rem: 0 
[95939090], op: 1, x: -419, y: 0,    ExpError: 1 HwErr: 1,    Exp Result: -1 Hw Res:-1,    Exp Rem: -1 Hw Rem: 0 
[96024978], op: 1, x: -418, y: 0,    ExpError: 1 HwErr: 1,    Exp Result: -1 Hw Res:-1,    Exp Rem: -1 Hw Rem: 0 
[96110866], op: 1, x: -417, y: 0,    ExpError: 1 HwErr: 1,    Exp Result: -1 Hw Res:-1,    Exp Rem: -1 Hw Rem: 0 
[96196754], op: 1, x: -416, y: 0,    ExpError: 1 HwErr: 1,    Exp Result: -1 Hw Res:-1,    Exp Rem: -1 Hw Rem: 0 
[96282642], op: 1, x: -415, y: 0,    ExpError: 1 HwErr: 1,    Exp Result: -1 Hw Res:-1,    Exp Rem: -1 Hw Rem: 0 
[96368530], op: 1, x: -414, y: 0,    ExpError: 1 HwErr: 1,    Exp Result: -1 Hw Res:-1,    Exp Rem: -1 Hw Rem: 0 
[96454418], op: 1, x: -413, y: 0,    ExpError: 1 HwErr: 1,    Exp Result: -1 Hw Res:-1,    Exp Rem: -1 Hw Rem: 0 
[96540306], op: 1, x: -412, y: 0,    ExpError: 1 HwErr: 1,    Exp Result: -1 Hw Res:-1,    Exp Rem: -1 Hw Rem: 0 
[96626194], op: 1, x: -411, y: 0,    ExpError: 1 HwErr: 1,    Exp Result: -1 Hw Res:-1,    Exp Rem: -1 Hw Rem: 0 
[96712082], op: 1, x: -410, y: 0,    ExpError: 1 HwErr: 1,    Exp Result: -1 Hw Res:-1,    Exp Rem: -1 Hw Rem: 0 
[96797970], op: 1, x: -409, y: 0,    ExpError: 1 HwErr: 1,    Exp Result: -1 Hw Res:-1,    Exp Rem: -1 Hw Rem: 0 
[96883858], op: 1, x: -408, y: 0,    ExpError: 1 HwErr: 1,    Exp Result: -1 Hw Res:-1,    Exp Rem: -1 Hw Rem: 0 
[96969746], op: 1, x: -407, y: 0,    ExpError: 1 HwErr: 1,    Exp Result: -1 Hw Res:-1,    Exp Rem: -1 Hw Rem: 0 
[97055634], op: 1, x: -406, y: 0,    ExpError: 1 HwErr: 1,    Exp Result: -1 Hw Res:-1,    Exp Rem: -1 Hw Rem: 0 
[97141522], op: 1, x: -405, y: 0,    ExpError: 1 HwErr: 1,    Exp Result: -1 Hw Res:-1,    Exp Rem: -1 Hw Rem: 0 
[97227410], op: 1, x: -404, y: 0,    ExpError: 1 HwErr: 1,    Exp Result: -1 Hw Res:-1,    Exp Rem: -1 Hw Rem: 0 
[97313298], op: 1, x: -403, y: 0,    ExpError: 1 HwErr: 1,    Exp Result: -1 Hw Res:-1,    Exp Rem: -1 Hw Rem: 0 
[97399186], op: 1, x: -402, y: 0,    ExpError: 1 HwErr: 1,    Exp Result: -1 Hw Res:-1,    Exp Rem: -1 Hw Rem: 0 
[97485074], op: 1, x: -401, y: 0,    ExpError: 1 HwErr: 1,    Exp Result: -1 Hw Res:-1,    Exp Rem: -1 Hw Rem: 0 
[97570962], op: 1, x: -400, y: 0,    ExpError: 1 HwErr: 1,    Exp Result: -1 Hw Res:-1,    Exp Rem: -1 Hw Rem: 0 
[97656850], op: 1, x: -399, y: 0,    ExpError: 1 HwErr: 1,    Exp Result: -1 Hw Res:-1,    Exp Rem: -1 Hw Rem: 0 
[97742738], op: 1, x: -398, y: 0,    ExpError: 1 HwErr: 1,    Exp Result: -1 Hw Res:-1,    Exp Rem: -1 Hw Rem: 0 
[97828626], op: 1, x: -397, y: 0,    ExpError: 1 HwErr: 1,    Exp Result: -1 Hw Res:-1,    Exp Rem: -1 Hw Rem: 0 
[97914514], op: 1, x: -396, y: 0,    ExpError: 1 HwErr: 1,    Exp Result: -1 Hw Res:-1,    Exp Rem: -1 Hw Rem: 0 
[98000402], op: 1, x: -395, y: 0,    ExpError: 1 HwErr: 1,    Exp Result: -1 Hw Res:-1,    Exp Rem: -1 Hw Rem: 0 
[98086290], op: 1, x: -394, y: 0,    ExpError: 1 HwErr: 1,    Exp Result: -1 Hw Res:-1,    Exp Rem: -1 Hw Rem: 0 
[98172178], op: 1, x: -393, y: 0,    ExpError: 1 HwErr: 1,    Exp Result: -1 Hw Res:-1,    Exp Rem: -1 Hw Rem: 0 
[98258066], op: 1, x: -392, y: 0,    ExpError: 1 HwErr: 1,    Exp Result: -1 Hw Res:-1,    Exp Rem: -1 Hw Rem: 0 
[98343954], op: 1, x: -391, y: 0,    ExpError: 1 HwErr: 1,    Exp Result: -1 Hw Res:-1,    Exp Rem: -1 Hw Rem: 0 
[98429842], op: 1, x: -390, y: 0,    ExpError: 1 HwErr: 1,    Exp Result: -1 Hw Res:-1,    Exp Rem: -1 Hw Rem: 0 
[98515730], op: 1, x: -389, y: 0,    ExpError: 1 HwErr: 1,    Exp Result: -1 Hw Res:-1,    Exp Rem: -1 Hw Rem: 0 
[98601618], op: 1, x: -388, y: 0,    ExpError: 1 HwErr: 1,    Exp Result: -1 Hw Res:-1,    Exp Rem: -1 Hw Rem: 0 
[98687506], op: 1, x: -387, y: 0,    ExpError: 1 HwErr: 1,    Exp Result: -1 Hw Res:-1,    Exp Rem: -1 Hw Rem: 0 
[98773394], op: 1, x: -386, y: 0,    ExpError: 1 HwErr: 1,    Exp Result: -1 Hw Res:-1,    Exp Rem: -1 Hw Rem: 0 
[98859282], op: 1, x: -385, y: 0,    ExpError: 1 HwErr: 1,    Exp Result: -1 Hw Res:-1,    Exp Rem: -1 Hw Rem: 0 
[98945170], op: 1, x: -384, y: 0,    ExpError: 1 HwErr: 1,    Exp Result: -1 Hw Res:-1,    Exp Rem: -1 Hw Rem: 0 
[99031058], op: 1, x: -383, y: 0,    ExpError: 1 HwErr: 1,    Exp Result: -1 Hw Res:-1,    Exp Rem: -1 Hw Rem: 0 
[99116946], op: 1, x: -382, y: 0,    ExpError: 1 HwErr: 1,    Exp Result: -1 Hw Res:-1,    Exp Rem: -1 Hw Rem: 0 
[99202834], op: 1, x: -381, y: 0,    ExpError: 1 HwErr: 1,    Exp Result: -1 Hw Res:-1,    Exp Rem: -1 Hw Rem: 0 
[99288722], op: 1, x: -380, y: 0,    ExpError: 1 HwErr: 1,    Exp Result: -1 Hw Res:-1,    Exp Rem: -1 Hw Rem: 0 
[99374610], op: 1, x: -379, y: 0,    ExpError: 1 HwErr: 1,    Exp Result: -1 Hw Res:-1,    Exp Rem: -1 Hw Rem: 0 
[99460498], op: 1, x: -378, y: 0,    ExpError: 1 HwErr: 1,    Exp Result: -1 Hw Res:-1,    Exp Rem: -1 Hw Rem: 0 
[99546386], op: 1, x: -377, y: 0,    ExpError: 1 HwErr: 1,    Exp Result: -1 Hw Res:-1,    Exp Rem: -1 Hw Rem: 0 
[99632274], op: 1, x: -376, y: 0,    ExpError: 1 HwErr: 1,    Exp Result: -1 Hw Res:-1,    Exp Rem: -1 Hw Rem: 0 
[99718162], op: 1, x: -375, y: 0,    ExpError: 1 HwErr: 1,    Exp Result: -1 Hw Res:-1,    Exp Rem: -1 Hw Rem: 0 
[99804050], op: 1, x: -374, y: 0,    ExpError: 1 HwErr: 1,    Exp Result: -1 Hw Res:-1,    Exp Rem: -1 Hw Rem: 0 
[99889938], op: 1, x: -373, y: 0,    ExpError: 1 HwErr: 1,    Exp Result: -1 Hw Res:-1,    Exp Rem: -1 Hw Rem: 0 
[99975826], op: 1, x: -372, y: 0,    ExpError: 1 HwErr: 1,    Exp Result: -1 Hw Res:-1,    Exp Rem: -1 Hw Rem: 0 
[100061714], op: 1, x: -371, y: 0,    ExpError: 1 HwErr: 1,    Exp Result: -1 Hw Res:-1,    Exp Rem: -1 Hw Rem: 0 
[100147602], op: 1, x: -370, y: 0,    ExpError: 1 HwErr: 1,    Exp Result: -1 Hw Res:-1,    Exp Rem: -1 Hw Rem: 0 
[100233490], op: 1, x: -369, y: 0,    ExpError: 1 HwErr: 1,    Exp Result: -1 Hw Res:-1,    Exp Rem: -1 Hw Rem: 0 
[100319378], op: 1, x: -368, y: 0,    ExpError: 1 HwErr: 1,    Exp Result: -1 Hw Res:-1,    Exp Rem: -1 Hw Rem: 0 
[100405266], op: 1, x: -367, y: 0,    ExpError: 1 HwErr: 1,    Exp Result: -1 Hw Res:-1,    Exp Rem: -1 Hw Rem: 0 
[100491154], op: 1, x: -366, y: 0,    ExpError: 1 HwErr: 1,    Exp Result: -1 Hw Res:-1,    Exp Rem: -1 Hw Rem: 0 
[100577042], op: 1, x: -365, y: 0,    ExpError: 1 HwErr: 1,    Exp Result: -1 Hw Res:-1,    Exp Rem: -1 Hw Rem: 0 
[100662930], op: 1, x: -364, y: 0,    ExpError: 1 HwErr: 1,    Exp Result: -1 Hw Res:-1,    Exp Rem: -1 Hw Rem: 0 
[100748818], op: 1, x: -363, y: 0,    ExpError: 1 HwErr: 1,    Exp Result: -1 Hw Res:-1,    Exp Rem: -1 Hw Rem: 0 
[100834706], op: 1, x: -362, y: 0,    ExpError: 1 HwErr: 1,    Exp Result: -1 Hw Res:-1,    Exp Rem: -1 Hw Rem: 0 
[100920594], op: 1, x: -361, y: 0,    ExpError: 1 HwErr: 1,    Exp Result: -1 Hw Res:-1,    Exp Rem: -1 Hw Rem: 0 
[101006482], op: 1, x: -360, y: 0,    ExpError: 1 HwErr: 1,    Exp Result: -1 Hw Res:-1,    Exp Rem: -1 Hw Rem: 0 
[101092370], op: 1, x: -359, y: 0,    ExpError: 1 HwErr: 1,    Exp Result: -1 Hw Res:-1,    Exp Rem: -1 Hw Rem: 0 
[101178258], op: 1, x: -358, y: 0,    ExpError: 1 HwErr: 1,    Exp Result: -1 Hw Res:-1,    Exp Rem: -1 Hw Rem: 0 
[101264146], op: 1, x: -357, y: 0,    ExpError: 1 HwErr: 1,    Exp Result: -1 Hw Res:-1,    Exp Rem: -1 Hw Rem: 0 
[101350034], op: 1, x: -356, y: 0,    ExpError: 1 HwErr: 1,    Exp Result: -1 Hw Res:-1,    Exp Rem: -1 Hw Rem: 0 
[101435922], op: 1, x: -355, y: 0,    ExpError: 1 HwErr: 1,    Exp Result: -1 Hw Res:-1,    Exp Rem: -1 Hw Rem: 0 
[101521810], op: 1, x: -354, y: 0,    ExpError: 1 HwErr: 1,    Exp Result: -1 Hw Res:-1,    Exp Rem: -1 Hw Rem: 0 
[101607698], op: 1, x: -353, y: 0,    ExpError: 1 HwErr: 1,    Exp Result: -1 Hw Res:-1,    Exp Rem: -1 Hw Rem: 0 
[101693586], op: 1, x: -352, y: 0,    ExpError: 1 HwErr: 1,    Exp Result: -1 Hw Res:-1,    Exp Rem: -1 Hw Rem: 0 
[101779474], op: 1, x: -351, y: 0,    ExpError: 1 HwErr: 1,    Exp Result: -1 Hw Res:-1,    Exp Rem: -1 Hw Rem: 0 
[101865362], op: 1, x: -350, y: 0,    ExpError: 1 HwErr: 1,    Exp Result: -1 Hw Res:-1,    Exp Rem: -1 Hw Rem: 0 
[101951250], op: 1, x: -349, y: 0,    ExpError: 1 HwErr: 1,    Exp Result: -1 Hw Res:-1,    Exp Rem: -1 Hw Rem: 0 
[102037138], op: 1, x: -348, y: 0,    ExpError: 1 HwErr: 1,    Exp Result: -1 Hw Res:-1,    Exp Rem: -1 Hw Rem: 0 
[102123026], op: 1, x: -347, y: 0,    ExpError: 1 HwErr: 1,    Exp Result: -1 Hw Res:-1,    Exp Rem: -1 Hw Rem: 0 
[102208914], op: 1, x: -346, y: 0,    ExpError: 1 HwErr: 1,    Exp Result: -1 Hw Res:-1,    Exp Rem: -1 Hw Rem: 0 
[102294802], op: 1, x: -345, y: 0,    ExpError: 1 HwErr: 1,    Exp Result: -1 Hw Res:-1,    Exp Rem: -1 Hw Rem: 0 
[102380690], op: 1, x: -344, y: 0,    ExpError: 1 HwErr: 1,    Exp Result: -1 Hw Res:-1,    Exp Rem: -1 Hw Rem: 0 
[102466578], op: 1, x: -343, y: 0,    ExpError: 1 HwErr: 1,    Exp Result: -1 Hw Res:-1,    Exp Rem: -1 Hw Rem: 0 
[102552466], op: 1, x: -342, y: 0,    ExpError: 1 HwErr: 1,    Exp Result: -1 Hw Res:-1,    Exp Rem: -1 Hw Rem: 0 
[102638354], op: 1, x: -341, y: 0,    ExpError: 1 HwErr: 1,    Exp Result: -1 Hw Res:-1,    Exp Rem: -1 Hw Rem: 0 
[102724242], op: 1, x: -340, y: 0,    ExpError: 1 HwErr: 1,    Exp Result: -1 Hw Res:-1,    Exp Rem: -1 Hw Rem: 0 
[102810130], op: 1, x: -339, y: 0,    ExpError: 1 HwErr: 1,    Exp Result: -1 Hw Res:-1,    Exp Rem: -1 Hw Rem: 0 
[102896018], op: 1, x: -338, y: 0,    ExpError: 1 HwErr: 1,    Exp Result: -1 Hw Res:-1,    Exp Rem: -1 Hw Rem: 0 
[102981906], op: 1, x: -337, y: 0,    ExpError: 1 HwErr: 1,    Exp Result: -1 Hw Res:-1,    Exp Rem: -1 Hw Rem: 0 
[103067794], op: 1, x: -336, y: 0,    ExpError: 1 HwErr: 1,    Exp Result: -1 Hw Res:-1,    Exp Rem: -1 Hw Rem: 0 
[103153682], op: 1, x: -335, y: 0,    ExpError: 1 HwErr: 1,    Exp Result: -1 Hw Res:-1,    Exp Rem: -1 Hw Rem: 0 
[103239570], op: 1, x: -334, y: 0,    ExpError: 1 HwErr: 1,    Exp Result: -1 Hw Res:-1,    Exp Rem: -1 Hw Rem: 0 
[103325458], op: 1, x: -333, y: 0,    ExpError: 1 HwErr: 1,    Exp Result: -1 Hw Res:-1,    Exp Rem: -1 Hw Rem: 0 
[103411346], op: 1, x: -332, y: 0,    ExpError: 1 HwErr: 1,    Exp Result: -1 Hw Res:-1,    Exp Rem: -1 Hw Rem: 0 
[103497234], op: 1, x: -331, y: 0,    ExpError: 1 HwErr: 1,    Exp Result: -1 Hw Res:-1,    Exp Rem: -1 Hw Rem: 0 
[103583122], op: 1, x: -330, y: 0,    ExpError: 1 HwErr: 1,    Exp Result: -1 Hw Res:-1,    Exp Rem: -1 Hw Rem: 0 
[103669010], op: 1, x: -329, y: 0,    ExpError: 1 HwErr: 1,    Exp Result: -1 Hw Res:-1,    Exp Rem: -1 Hw Rem: 0 
[103754898], op: 1, x: -328, y: 0,    ExpError: 1 HwErr: 1,    Exp Result: -1 Hw Res:-1,    Exp Rem: -1 Hw Rem: 0 
[103840786], op: 1, x: -327, y: 0,    ExpError: 1 HwErr: 1,    Exp Result: -1 Hw Res:-1,    Exp Rem: -1 Hw Rem: 0 
[103926674], op: 1, x: -326, y: 0,    ExpError: 1 HwErr: 1,    Exp Result: -1 Hw Res:-1,    Exp Rem: -1 Hw Rem: 0 
[104012562], op: 1, x: -325, y: 0,    ExpError: 1 HwErr: 1,    Exp Result: -1 Hw Res:-1,    Exp Rem: -1 Hw Rem: 0 
[104098450], op: 1, x: -324, y: 0,    ExpError: 1 HwErr: 1,    Exp Result: -1 Hw Res:-1,    Exp Rem: -1 Hw Rem: 0 
[104184338], op: 1, x: -323, y: 0,    ExpError: 1 HwErr: 1,    Exp Result: -1 Hw Res:-1,    Exp Rem: -1 Hw Rem: 0 
[104270226], op: 1, x: -322, y: 0,    ExpError: 1 HwErr: 1,    Exp Result: -1 Hw Res:-1,    Exp Rem: -1 Hw Rem: 0 
[104356114], op: 1, x: -321, y: 0,    ExpError: 1 HwErr: 1,    Exp Result: -1 Hw Res:-1,    Exp Rem: -1 Hw Rem: 0 
[104442002], op: 1, x: -320, y: 0,    ExpError: 1 HwErr: 1,    Exp Result: -1 Hw Res:-1,    Exp Rem: -1 Hw Rem: 0 
[104527890], op: 1, x: -319, y: 0,    ExpError: 1 HwErr: 1,    Exp Result: -1 Hw Res:-1,    Exp Rem: -1 Hw Rem: 0 
[104613778], op: 1, x: -318, y: 0,    ExpError: 1 HwErr: 1,    Exp Result: -1 Hw Res:-1,    Exp Rem: -1 Hw Rem: 0 
[104699666], op: 1, x: -317, y: 0,    ExpError: 1 HwErr: 1,    Exp Result: -1 Hw Res:-1,    Exp Rem: -1 Hw Rem: 0 
[104785554], op: 1, x: -316, y: 0,    ExpError: 1 HwErr: 1,    Exp Result: -1 Hw Res:-1,    Exp Rem: -1 Hw Rem: 0 
[104871442], op: 1, x: -315, y: 0,    ExpError: 1 HwErr: 1,    Exp Result: -1 Hw Res:-1,    Exp Rem: -1 Hw Rem: 0 
[104957330], op: 1, x: -314, y: 0,    ExpError: 1 HwErr: 1,    Exp Result: -1 Hw Res:-1,    Exp Rem: -1 Hw Rem: 0 
[105043218], op: 1, x: -313, y: 0,    ExpError: 1 HwErr: 1,    Exp Result: -1 Hw Res:-1,    Exp Rem: -1 Hw Rem: 0 
[105129106], op: 1, x: -312, y: 0,    ExpError: 1 HwErr: 1,    Exp Result: -1 Hw Res:-1,    Exp Rem: -1 Hw Rem: 0 
[105214994], op: 1, x: -311, y: 0,    ExpError: 1 HwErr: 1,    Exp Result: -1 Hw Res:-1,    Exp Rem: -1 Hw Rem: 0 
[105300882], op: 1, x: -310, y: 0,    ExpError: 1 HwErr: 1,    Exp Result: -1 Hw Res:-1,    Exp Rem: -1 Hw Rem: 0 
[105386770], op: 1, x: -309, y: 0,    ExpError: 1 HwErr: 1,    Exp Result: -1 Hw Res:-1,    Exp Rem: -1 Hw Rem: 0 
[105472658], op: 1, x: -308, y: 0,    ExpError: 1 HwErr: 1,    Exp Result: -1 Hw Res:-1,    Exp Rem: -1 Hw Rem: 0 
[105558546], op: 1, x: -307, y: 0,    ExpError: 1 HwErr: 1,    Exp Result: -1 Hw Res:-1,    Exp Rem: -1 Hw Rem: 0 
[105644434], op: 1, x: -306, y: 0,    ExpError: 1 HwErr: 1,    Exp Result: -1 Hw Res:-1,    Exp Rem: -1 Hw Rem: 0 
[105730322], op: 1, x: -305, y: 0,    ExpError: 1 HwErr: 1,    Exp Result: -1 Hw Res:-1,    Exp Rem: -1 Hw Rem: 0 
[105816210], op: 1, x: -304, y: 0,    ExpError: 1 HwErr: 1,    Exp Result: -1 Hw Res:-1,    Exp Rem: -1 Hw Rem: 0 
[105902098], op: 1, x: -303, y: 0,    ExpError: 1 HwErr: 1,    Exp Result: -1 Hw Res:-1,    Exp Rem: -1 Hw Rem: 0 
[105987986], op: 1, x: -302, y: 0,    ExpError: 1 HwErr: 1,    Exp Result: -1 Hw Res:-1,    Exp Rem: -1 Hw Rem: 0 
[106073874], op: 1, x: -301, y: 0,    ExpError: 1 HwErr: 1,    Exp Result: -1 Hw Res:-1,    Exp Rem: -1 Hw Rem: 0 
[106159762], op: 1, x: -300, y: 0,    ExpError: 1 HwErr: 1,    Exp Result: -1 Hw Res:-1,    Exp Rem: -1 Hw Rem: 0 
[106245650], op: 1, x: -299, y: 0,    ExpError: 1 HwErr: 1,    Exp Result: -1 Hw Res:-1,    Exp Rem: -1 Hw Rem: 0 
[106331538], op: 1, x: -298, y: 0,    ExpError: 1 HwErr: 1,    Exp Result: -1 Hw Res:-1,    Exp Rem: -1 Hw Rem: 0 
[106417426], op: 1, x: -297, y: 0,    ExpError: 1 HwErr: 1,    Exp Result: -1 Hw Res:-1,    Exp Rem: -1 Hw Rem: 0 
[106503314], op: 1, x: -296, y: 0,    ExpError: 1 HwErr: 1,    Exp Result: -1 Hw Res:-1,    Exp Rem: -1 Hw Rem: 0 
[106589202], op: 1, x: -295, y: 0,    ExpError: 1 HwErr: 1,    Exp Result: -1 Hw Res:-1,    Exp Rem: -1 Hw Rem: 0 
[106675090], op: 1, x: -294, y: 0,    ExpError: 1 HwErr: 1,    Exp Result: -1 Hw Res:-1,    Exp Rem: -1 Hw Rem: 0 
[106760978], op: 1, x: -293, y: 0,    ExpError: 1 HwErr: 1,    Exp Result: -1 Hw Res:-1,    Exp Rem: -1 Hw Rem: 0 
[106846866], op: 1, x: -292, y: 0,    ExpError: 1 HwErr: 1,    Exp Result: -1 Hw Res:-1,    Exp Rem: -1 Hw Rem: 0 
[106932754], op: 1, x: -291, y: 0,    ExpError: 1 HwErr: 1,    Exp Result: -1 Hw Res:-1,    Exp Rem: -1 Hw Rem: 0 
[107018642], op: 1, x: -290, y: 0,    ExpError: 1 HwErr: 1,    Exp Result: -1 Hw Res:-1,    Exp Rem: -1 Hw Rem: 0 
[107104530], op: 1, x: -289, y: 0,    ExpError: 1 HwErr: 1,    Exp Result: -1 Hw Res:-1,    Exp Rem: -1 Hw Rem: 0 
[107190418], op: 1, x: -288, y: 0,    ExpError: 1 HwErr: 1,    Exp Result: -1 Hw Res:-1,    Exp Rem: -1 Hw Rem: 0 
[107276306], op: 1, x: -287, y: 0,    ExpError: 1 HwErr: 1,    Exp Result: -1 Hw Res:-1,    Exp Rem: -1 Hw Rem: 0 
[107362194], op: 1, x: -286, y: 0,    ExpError: 1 HwErr: 1,    Exp Result: -1 Hw Res:-1,    Exp Rem: -1 Hw Rem: 0 
[107448082], op: 1, x: -285, y: 0,    ExpError: 1 HwErr: 1,    Exp Result: -1 Hw Res:-1,    Exp Rem: -1 Hw Rem: 0 
[107533970], op: 1, x: -284, y: 0,    ExpError: 1 HwErr: 1,    Exp Result: -1 Hw Res:-1,    Exp Rem: -1 Hw Rem: 0 
[107619858], op: 1, x: -283, y: 0,    ExpError: 1 HwErr: 1,    Exp Result: -1 Hw Res:-1,    Exp Rem: -1 Hw Rem: 0 
[107705746], op: 1, x: -282, y: 0,    ExpError: 1 HwErr: 1,    Exp Result: -1 Hw Res:-1,    Exp Rem: -1 Hw Rem: 0 
[107791634], op: 1, x: -281, y: 0,    ExpError: 1 HwErr: 1,    Exp Result: -1 Hw Res:-1,    Exp Rem: -1 Hw Rem: 0 
[107877522], op: 1, x: -280, y: 0,    ExpError: 1 HwErr: 1,    Exp Result: -1 Hw Res:-1,    Exp Rem: -1 Hw Rem: 0 
[107963410], op: 1, x: -279, y: 0,    ExpError: 1 HwErr: 1,    Exp Result: -1 Hw Res:-1,    Exp Rem: -1 Hw Rem: 0 
[108049298], op: 1, x: -278, y: 0,    ExpError: 1 HwErr: 1,    Exp Result: -1 Hw Res:-1,    Exp Rem: -1 Hw Rem: 0 
[108135186], op: 1, x: -277, y: 0,    ExpError: 1 HwErr: 1,    Exp Result: -1 Hw Res:-1,    Exp Rem: -1 Hw Rem: 0 
[108221074], op: 1, x: -276, y: 0,    ExpError: 1 HwErr: 1,    Exp Result: -1 Hw Res:-1,    Exp Rem: -1 Hw Rem: 0 
[108306962], op: 1, x: -275, y: 0,    ExpError: 1 HwErr: 1,    Exp Result: -1 Hw Res:-1,    Exp Rem: -1 Hw Rem: 0 
[108392850], op: 1, x: -274, y: 0,    ExpError: 1 HwErr: 1,    Exp Result: -1 Hw Res:-1,    Exp Rem: -1 Hw Rem: 0 
[108478738], op: 1, x: -273, y: 0,    ExpError: 1 HwErr: 1,    Exp Result: -1 Hw Res:-1,    Exp Rem: -1 Hw Rem: 0 
[108564626], op: 1, x: -272, y: 0,    ExpError: 1 HwErr: 1,    Exp Result: -1 Hw Res:-1,    Exp Rem: -1 Hw Rem: 0 
[108650514], op: 1, x: -271, y: 0,    ExpError: 1 HwErr: 1,    Exp Result: -1 Hw Res:-1,    Exp Rem: -1 Hw Rem: 0 
[108736402], op: 1, x: -270, y: 0,    ExpError: 1 HwErr: 1,    Exp Result: -1 Hw Res:-1,    Exp Rem: -1 Hw Rem: 0 
[108822290], op: 1, x: -269, y: 0,    ExpError: 1 HwErr: 1,    Exp Result: -1 Hw Res:-1,    Exp Rem: -1 Hw Rem: 0 
[108908178], op: 1, x: -268, y: 0,    ExpError: 1 HwErr: 1,    Exp Result: -1 Hw Res:-1,    Exp Rem: -1 Hw Rem: 0 
[108994066], op: 1, x: -267, y: 0,    ExpError: 1 HwErr: 1,    Exp Result: -1 Hw Res:-1,    Exp Rem: -1 Hw Rem: 0 
[109079954], op: 1, x: -266, y: 0,    ExpError: 1 HwErr: 1,    Exp Result: -1 Hw Res:-1,    Exp Rem: -1 Hw Rem: 0 
[109165842], op: 1, x: -265, y: 0,    ExpError: 1 HwErr: 1,    Exp Result: -1 Hw Res:-1,    Exp Rem: -1 Hw Rem: 0 
[109251730], op: 1, x: -264, y: 0,    ExpError: 1 HwErr: 1,    Exp Result: -1 Hw Res:-1,    Exp Rem: -1 Hw Rem: 0 
[109337618], op: 1, x: -263, y: 0,    ExpError: 1 HwErr: 1,    Exp Result: -1 Hw Res:-1,    Exp Rem: -1 Hw Rem: 0 
[109423506], op: 1, x: -262, y: 0,    ExpError: 1 HwErr: 1,    Exp Result: -1 Hw Res:-1,    Exp Rem: -1 Hw Rem: 0 
[109509394], op: 1, x: -261, y: 0,    ExpError: 1 HwErr: 1,    Exp Result: -1 Hw Res:-1,    Exp Rem: -1 Hw Rem: 0 
[109595282], op: 1, x: -260, y: 0,    ExpError: 1 HwErr: 1,    Exp Result: -1 Hw Res:-1,    Exp Rem: -1 Hw Rem: 0 
[109681170], op: 1, x: -259, y: 0,    ExpError: 1 HwErr: 1,    Exp Result: -1 Hw Res:-1,    Exp Rem: -1 Hw Rem: 0 
[109767058], op: 1, x: -258, y: 0,    ExpError: 1 HwErr: 1,    Exp Result: -1 Hw Res:-1,    Exp Rem: -1 Hw Rem: 0 
[109852946], op: 1, x: -257, y: 0,    ExpError: 1 HwErr: 1,    Exp Result: -1 Hw Res:-1,    Exp Rem: -1 Hw Rem: 0 
[109938834], op: 1, x: -256, y: 0,    ExpError: 1 HwErr: 1,    Exp Result: -1 Hw Res:-1,    Exp Rem: -1 Hw Rem: 0 
[110024722], op: 1, x: -255, y: 0,    ExpError: 1 HwErr: 1,    Exp Result: -1 Hw Res:-1,    Exp Rem: -1 Hw Rem: 0 
[110110610], op: 1, x: -254, y: 0,    ExpError: 1 HwErr: 1,    Exp Result: -1 Hw Res:-1,    Exp Rem: -1 Hw Rem: 0 
[110196498], op: 1, x: -253, y: 0,    ExpError: 1 HwErr: 1,    Exp Result: -1 Hw Res:-1,    Exp Rem: -1 Hw Rem: 0 
[110282386], op: 1, x: -252, y: 0,    ExpError: 1 HwErr: 1,    Exp Result: -1 Hw Res:-1,    Exp Rem: -1 Hw Rem: 0 
[110368274], op: 1, x: -251, y: 0,    ExpError: 1 HwErr: 1,    Exp Result: -1 Hw Res:-1,    Exp Rem: -1 Hw Rem: 0 
[110454162], op: 1, x: -250, y: 0,    ExpError: 1 HwErr: 1,    Exp Result: -1 Hw Res:-1,    Exp Rem: -1 Hw Rem: 0 
[110540050], op: 1, x: -249, y: 0,    ExpError: 1 HwErr: 1,    Exp Result: -1 Hw Res:-1,    Exp Rem: -1 Hw Rem: 0 
[110625938], op: 1, x: -248, y: 0,    ExpError: 1 HwErr: 1,    Exp Result: -1 Hw Res:-1,    Exp Rem: -1 Hw Rem: 0 
[110711826], op: 1, x: -247, y: 0,    ExpError: 1 HwErr: 1,    Exp Result: -1 Hw Res:-1,    Exp Rem: -1 Hw Rem: 0 
[110797714], op: 1, x: -246, y: 0,    ExpError: 1 HwErr: 1,    Exp Result: -1 Hw Res:-1,    Exp Rem: -1 Hw Rem: 0 
[110883602], op: 1, x: -245, y: 0,    ExpError: 1 HwErr: 1,    Exp Result: -1 Hw Res:-1,    Exp Rem: -1 Hw Rem: 0 
[110969490], op: 1, x: -244, y: 0,    ExpError: 1 HwErr: 1,    Exp Result: -1 Hw Res:-1,    Exp Rem: -1 Hw Rem: 0 
[111055378], op: 1, x: -243, y: 0,    ExpError: 1 HwErr: 1,    Exp Result: -1 Hw Res:-1,    Exp Rem: -1 Hw Rem: 0 
[111141266], op: 1, x: -242, y: 0,    ExpError: 1 HwErr: 1,    Exp Result: -1 Hw Res:-1,    Exp Rem: -1 Hw Rem: 0 
[111227154], op: 1, x: -241, y: 0,    ExpError: 1 HwErr: 1,    Exp Result: -1 Hw Res:-1,    Exp Rem: -1 Hw Rem: 0 
[111313042], op: 1, x: -240, y: 0,    ExpError: 1 HwErr: 1,    Exp Result: -1 Hw Res:-1,    Exp Rem: -1 Hw Rem: 0 
[111398930], op: 1, x: -239, y: 0,    ExpError: 1 HwErr: 1,    Exp Result: -1 Hw Res:-1,    Exp Rem: -1 Hw Rem: 0 
[111484818], op: 1, x: -238, y: 0,    ExpError: 1 HwErr: 1,    Exp Result: -1 Hw Res:-1,    Exp Rem: -1 Hw Rem: 0 
[111570706], op: 1, x: -237, y: 0,    ExpError: 1 HwErr: 1,    Exp Result: -1 Hw Res:-1,    Exp Rem: -1 Hw Rem: 0 
[111656594], op: 1, x: -236, y: 0,    ExpError: 1 HwErr: 1,    Exp Result: -1 Hw Res:-1,    Exp Rem: -1 Hw Rem: 0 
[111742482], op: 1, x: -235, y: 0,    ExpError: 1 HwErr: 1,    Exp Result: -1 Hw Res:-1,    Exp Rem: -1 Hw Rem: 0 
[111828370], op: 1, x: -234, y: 0,    ExpError: 1 HwErr: 1,    Exp Result: -1 Hw Res:-1,    Exp Rem: -1 Hw Rem: 0 
[111914258], op: 1, x: -233, y: 0,    ExpError: 1 HwErr: 1,    Exp Result: -1 Hw Res:-1,    Exp Rem: -1 Hw Rem: 0 
[112000146], op: 1, x: -232, y: 0,    ExpError: 1 HwErr: 1,    Exp Result: -1 Hw Res:-1,    Exp Rem: -1 Hw Rem: 0 
[112086034], op: 1, x: -231, y: 0,    ExpError: 1 HwErr: 1,    Exp Result: -1 Hw Res:-1,    Exp Rem: -1 Hw Rem: 0 
[112171922], op: 1, x: -230, y: 0,    ExpError: 1 HwErr: 1,    Exp Result: -1 Hw Res:-1,    Exp Rem: -1 Hw Rem: 0 
[112257810], op: 1, x: -229, y: 0,    ExpError: 1 HwErr: 1,    Exp Result: -1 Hw Res:-1,    Exp Rem: -1 Hw Rem: 0 
[112343698], op: 1, x: -228, y: 0,    ExpError: 1 HwErr: 1,    Exp Result: -1 Hw Res:-1,    Exp Rem: -1 Hw Rem: 0 
[112429586], op: 1, x: -227, y: 0,    ExpError: 1 HwErr: 1,    Exp Result: -1 Hw Res:-1,    Exp Rem: -1 Hw Rem: 0 
[112515474], op: 1, x: -226, y: 0,    ExpError: 1 HwErr: 1,    Exp Result: -1 Hw Res:-1,    Exp Rem: -1 Hw Rem: 0 
[112601362], op: 1, x: -225, y: 0,    ExpError: 1 HwErr: 1,    Exp Result: -1 Hw Res:-1,    Exp Rem: -1 Hw Rem: 0 
[112687250], op: 1, x: -224, y: 0,    ExpError: 1 HwErr: 1,    Exp Result: -1 Hw Res:-1,    Exp Rem: -1 Hw Rem: 0 
[112773138], op: 1, x: -223, y: 0,    ExpError: 1 HwErr: 1,    Exp Result: -1 Hw Res:-1,    Exp Rem: -1 Hw Rem: 0 
[112859026], op: 1, x: -222, y: 0,    ExpError: 1 HwErr: 1,    Exp Result: -1 Hw Res:-1,    Exp Rem: -1 Hw Rem: 0 
[112944914], op: 1, x: -221, y: 0,    ExpError: 1 HwErr: 1,    Exp Result: -1 Hw Res:-1,    Exp Rem: -1 Hw Rem: 0 
[113030802], op: 1, x: -220, y: 0,    ExpError: 1 HwErr: 1,    Exp Result: -1 Hw Res:-1,    Exp Rem: -1 Hw Rem: 0 
[113116690], op: 1, x: -219, y: 0,    ExpError: 1 HwErr: 1,    Exp Result: -1 Hw Res:-1,    Exp Rem: -1 Hw Rem: 0 
[113202578], op: 1, x: -218, y: 0,    ExpError: 1 HwErr: 1,    Exp Result: -1 Hw Res:-1,    Exp Rem: -1 Hw Rem: 0 
[113288466], op: 1, x: -217, y: 0,    ExpError: 1 HwErr: 1,    Exp Result: -1 Hw Res:-1,    Exp Rem: -1 Hw Rem: 0 
[113374354], op: 1, x: -216, y: 0,    ExpError: 1 HwErr: 1,    Exp Result: -1 Hw Res:-1,    Exp Rem: -1 Hw Rem: 0 
[113460242], op: 1, x: -215, y: 0,    ExpError: 1 HwErr: 1,    Exp Result: -1 Hw Res:-1,    Exp Rem: -1 Hw Rem: 0 
[113546130], op: 1, x: -214, y: 0,    ExpError: 1 HwErr: 1,    Exp Result: -1 Hw Res:-1,    Exp Rem: -1 Hw Rem: 0 
[113632018], op: 1, x: -213, y: 0,    ExpError: 1 HwErr: 1,    Exp Result: -1 Hw Res:-1,    Exp Rem: -1 Hw Rem: 0 
[113717906], op: 1, x: -212, y: 0,    ExpError: 1 HwErr: 1,    Exp Result: -1 Hw Res:-1,    Exp Rem: -1 Hw Rem: 0 
[113803794], op: 1, x: -211, y: 0,    ExpError: 1 HwErr: 1,    Exp Result: -1 Hw Res:-1,    Exp Rem: -1 Hw Rem: 0 
[113889682], op: 1, x: -210, y: 0,    ExpError: 1 HwErr: 1,    Exp Result: -1 Hw Res:-1,    Exp Rem: -1 Hw Rem: 0 
[113975570], op: 1, x: -209, y: 0,    ExpError: 1 HwErr: 1,    Exp Result: -1 Hw Res:-1,    Exp Rem: -1 Hw Rem: 0 
[114061458], op: 1, x: -208, y: 0,    ExpError: 1 HwErr: 1,    Exp Result: -1 Hw Res:-1,    Exp Rem: -1 Hw Rem: 0 
[114147346], op: 1, x: -207, y: 0,    ExpError: 1 HwErr: 1,    Exp Result: -1 Hw Res:-1,    Exp Rem: -1 Hw Rem: 0 
[114233234], op: 1, x: -206, y: 0,    ExpError: 1 HwErr: 1,    Exp Result: -1 Hw Res:-1,    Exp Rem: -1 Hw Rem: 0 
[114319122], op: 1, x: -205, y: 0,    ExpError: 1 HwErr: 1,    Exp Result: -1 Hw Res:-1,    Exp Rem: -1 Hw Rem: 0 
[114405010], op: 1, x: -204, y: 0,    ExpError: 1 HwErr: 1,    Exp Result: -1 Hw Res:-1,    Exp Rem: -1 Hw Rem: 0 
[114490898], op: 1, x: -203, y: 0,    ExpError: 1 HwErr: 1,    Exp Result: -1 Hw Res:-1,    Exp Rem: -1 Hw Rem: 0 
[114576786], op: 1, x: -202, y: 0,    ExpError: 1 HwErr: 1,    Exp Result: -1 Hw Res:-1,    Exp Rem: -1 Hw Rem: 0 
[114662674], op: 1, x: -201, y: 0,    ExpError: 1 HwErr: 1,    Exp Result: -1 Hw Res:-1,    Exp Rem: -1 Hw Rem: 0 
[114748562], op: 1, x: -200, y: 0,    ExpError: 1 HwErr: 1,    Exp Result: -1 Hw Res:-1,    Exp Rem: -1 Hw Rem: 0 
[114834450], op: 1, x: -199, y: 0,    ExpError: 1 HwErr: 1,    Exp Result: -1 Hw Res:-1,    Exp Rem: -1 Hw Rem: 0 
[114920338], op: 1, x: -198, y: 0,    ExpError: 1 HwErr: 1,    Exp Result: -1 Hw Res:-1,    Exp Rem: -1 Hw Rem: 0 
[115006226], op: 1, x: -197, y: 0,    ExpError: 1 HwErr: 1,    Exp Result: -1 Hw Res:-1,    Exp Rem: -1 Hw Rem: 0 
[115092114], op: 1, x: -196, y: 0,    ExpError: 1 HwErr: 1,    Exp Result: -1 Hw Res:-1,    Exp Rem: -1 Hw Rem: 0 
[115178002], op: 1, x: -195, y: 0,    ExpError: 1 HwErr: 1,    Exp Result: -1 Hw Res:-1,    Exp Rem: -1 Hw Rem: 0 
[115263890], op: 1, x: -194, y: 0,    ExpError: 1 HwErr: 1,    Exp Result: -1 Hw Res:-1,    Exp Rem: -1 Hw Rem: 0 
[115349778], op: 1, x: -193, y: 0,    ExpError: 1 HwErr: 1,    Exp Result: -1 Hw Res:-1,    Exp Rem: -1 Hw Rem: 0 
[115435666], op: 1, x: -192, y: 0,    ExpError: 1 HwErr: 1,    Exp Result: -1 Hw Res:-1,    Exp Rem: -1 Hw Rem: 0 
[115521554], op: 1, x: -191, y: 0,    ExpError: 1 HwErr: 1,    Exp Result: -1 Hw Res:-1,    Exp Rem: -1 Hw Rem: 0 
[115607442], op: 1, x: -190, y: 0,    ExpError: 1 HwErr: 1,    Exp Result: -1 Hw Res:-1,    Exp Rem: -1 Hw Rem: 0 
[115693330], op: 1, x: -189, y: 0,    ExpError: 1 HwErr: 1,    Exp Result: -1 Hw Res:-1,    Exp Rem: -1 Hw Rem: 0 
[115779218], op: 1, x: -188, y: 0,    ExpError: 1 HwErr: 1,    Exp Result: -1 Hw Res:-1,    Exp Rem: -1 Hw Rem: 0 
[115865106], op: 1, x: -187, y: 0,    ExpError: 1 HwErr: 1,    Exp Result: -1 Hw Res:-1,    Exp Rem: -1 Hw Rem: 0 
[115950994], op: 1, x: -186, y: 0,    ExpError: 1 HwErr: 1,    Exp Result: -1 Hw Res:-1,    Exp Rem: -1 Hw Rem: 0 
[116036882], op: 1, x: -185, y: 0,    ExpError: 1 HwErr: 1,    Exp Result: -1 Hw Res:-1,    Exp Rem: -1 Hw Rem: 0 
[116122770], op: 1, x: -184, y: 0,    ExpError: 1 HwErr: 1,    Exp Result: -1 Hw Res:-1,    Exp Rem: -1 Hw Rem: 0 
[116208658], op: 1, x: -183, y: 0,    ExpError: 1 HwErr: 1,    Exp Result: -1 Hw Res:-1,    Exp Rem: -1 Hw Rem: 0 
[116294546], op: 1, x: -182, y: 0,    ExpError: 1 HwErr: 1,    Exp Result: -1 Hw Res:-1,    Exp Rem: -1 Hw Rem: 0 
[116380434], op: 1, x: -181, y: 0,    ExpError: 1 HwErr: 1,    Exp Result: -1 Hw Res:-1,    Exp Rem: -1 Hw Rem: 0 
[116466322], op: 1, x: -180, y: 0,    ExpError: 1 HwErr: 1,    Exp Result: -1 Hw Res:-1,    Exp Rem: -1 Hw Rem: 0 
[116552210], op: 1, x: -179, y: 0,    ExpError: 1 HwErr: 1,    Exp Result: -1 Hw Res:-1,    Exp Rem: -1 Hw Rem: 0 
[116638098], op: 1, x: -178, y: 0,    ExpError: 1 HwErr: 1,    Exp Result: -1 Hw Res:-1,    Exp Rem: -1 Hw Rem: 0 
[116723986], op: 1, x: -177, y: 0,    ExpError: 1 HwErr: 1,    Exp Result: -1 Hw Res:-1,    Exp Rem: -1 Hw Rem: 0 
[116809874], op: 1, x: -176, y: 0,    ExpError: 1 HwErr: 1,    Exp Result: -1 Hw Res:-1,    Exp Rem: -1 Hw Rem: 0 
[116895762], op: 1, x: -175, y: 0,    ExpError: 1 HwErr: 1,    Exp Result: -1 Hw Res:-1,    Exp Rem: -1 Hw Rem: 0 
[116981650], op: 1, x: -174, y: 0,    ExpError: 1 HwErr: 1,    Exp Result: -1 Hw Res:-1,    Exp Rem: -1 Hw Rem: 0 
[117067538], op: 1, x: -173, y: 0,    ExpError: 1 HwErr: 1,    Exp Result: -1 Hw Res:-1,    Exp Rem: -1 Hw Rem: 0 
[117153426], op: 1, x: -172, y: 0,    ExpError: 1 HwErr: 1,    Exp Result: -1 Hw Res:-1,    Exp Rem: -1 Hw Rem: 0 
[117239314], op: 1, x: -171, y: 0,    ExpError: 1 HwErr: 1,    Exp Result: -1 Hw Res:-1,    Exp Rem: -1 Hw Rem: 0 
[117325202], op: 1, x: -170, y: 0,    ExpError: 1 HwErr: 1,    Exp Result: -1 Hw Res:-1,    Exp Rem: -1 Hw Rem: 0 
[117411090], op: 1, x: -169, y: 0,    ExpError: 1 HwErr: 1,    Exp Result: -1 Hw Res:-1,    Exp Rem: -1 Hw Rem: 0 
[117496978], op: 1, x: -168, y: 0,    ExpError: 1 HwErr: 1,    Exp Result: -1 Hw Res:-1,    Exp Rem: -1 Hw Rem: 0 
[117582866], op: 1, x: -167, y: 0,    ExpError: 1 HwErr: 1,    Exp Result: -1 Hw Res:-1,    Exp Rem: -1 Hw Rem: 0 
[117668754], op: 1, x: -166, y: 0,    ExpError: 1 HwErr: 1,    Exp Result: -1 Hw Res:-1,    Exp Rem: -1 Hw Rem: 0 
[117754642], op: 1, x: -165, y: 0,    ExpError: 1 HwErr: 1,    Exp Result: -1 Hw Res:-1,    Exp Rem: -1 Hw Rem: 0 
[117840530], op: 1, x: -164, y: 0,    ExpError: 1 HwErr: 1,    Exp Result: -1 Hw Res:-1,    Exp Rem: -1 Hw Rem: 0 
[117926418], op: 1, x: -163, y: 0,    ExpError: 1 HwErr: 1,    Exp Result: -1 Hw Res:-1,    Exp Rem: -1 Hw Rem: 0 
[118012306], op: 1, x: -162, y: 0,    ExpError: 1 HwErr: 1,    Exp Result: -1 Hw Res:-1,    Exp Rem: -1 Hw Rem: 0 
[118098194], op: 1, x: -161, y: 0,    ExpError: 1 HwErr: 1,    Exp Result: -1 Hw Res:-1,    Exp Rem: -1 Hw Rem: 0 
[118184082], op: 1, x: -160, y: 0,    ExpError: 1 HwErr: 1,    Exp Result: -1 Hw Res:-1,    Exp Rem: -1 Hw Rem: 0 
[118269970], op: 1, x: -159, y: 0,    ExpError: 1 HwErr: 1,    Exp Result: -1 Hw Res:-1,    Exp Rem: -1 Hw Rem: 0 
[118355858], op: 1, x: -158, y: 0,    ExpError: 1 HwErr: 1,    Exp Result: -1 Hw Res:-1,    Exp Rem: -1 Hw Rem: 0 
[118441746], op: 1, x: -157, y: 0,    ExpError: 1 HwErr: 1,    Exp Result: -1 Hw Res:-1,    Exp Rem: -1 Hw Rem: 0 
[118527634], op: 1, x: -156, y: 0,    ExpError: 1 HwErr: 1,    Exp Result: -1 Hw Res:-1,    Exp Rem: -1 Hw Rem: 0 
[118613522], op: 1, x: -155, y: 0,    ExpError: 1 HwErr: 1,    Exp Result: -1 Hw Res:-1,    Exp Rem: -1 Hw Rem: 0 
[118699410], op: 1, x: -154, y: 0,    ExpError: 1 HwErr: 1,    Exp Result: -1 Hw Res:-1,    Exp Rem: -1 Hw Rem: 0 
[118785298], op: 1, x: -153, y: 0,    ExpError: 1 HwErr: 1,    Exp Result: -1 Hw Res:-1,    Exp Rem: -1 Hw Rem: 0 
[118871186], op: 1, x: -152, y: 0,    ExpError: 1 HwErr: 1,    Exp Result: -1 Hw Res:-1,    Exp Rem: -1 Hw Rem: 0 
[118957074], op: 1, x: -151, y: 0,    ExpError: 1 HwErr: 1,    Exp Result: -1 Hw Res:-1,    Exp Rem: -1 Hw Rem: 0 
[119042962], op: 1, x: -150, y: 0,    ExpError: 1 HwErr: 1,    Exp Result: -1 Hw Res:-1,    Exp Rem: -1 Hw Rem: 0 
[119128850], op: 1, x: -149, y: 0,    ExpError: 1 HwErr: 1,    Exp Result: -1 Hw Res:-1,    Exp Rem: -1 Hw Rem: 0 
[119214738], op: 1, x: -148, y: 0,    ExpError: 1 HwErr: 1,    Exp Result: -1 Hw Res:-1,    Exp Rem: -1 Hw Rem: 0 
[119300626], op: 1, x: -147, y: 0,    ExpError: 1 HwErr: 1,    Exp Result: -1 Hw Res:-1,    Exp Rem: -1 Hw Rem: 0 
[119386514], op: 1, x: -146, y: 0,    ExpError: 1 HwErr: 1,    Exp Result: -1 Hw Res:-1,    Exp Rem: -1 Hw Rem: 0 
[119472402], op: 1, x: -145, y: 0,    ExpError: 1 HwErr: 1,    Exp Result: -1 Hw Res:-1,    Exp Rem: -1 Hw Rem: 0 
[119558290], op: 1, x: -144, y: 0,    ExpError: 1 HwErr: 1,    Exp Result: -1 Hw Res:-1,    Exp Rem: -1 Hw Rem: 0 
[119644178], op: 1, x: -143, y: 0,    ExpError: 1 HwErr: 1,    Exp Result: -1 Hw Res:-1,    Exp Rem: -1 Hw Rem: 0 
[119730066], op: 1, x: -142, y: 0,    ExpError: 1 HwErr: 1,    Exp Result: -1 Hw Res:-1,    Exp Rem: -1 Hw Rem: 0 
[119815954], op: 1, x: -141, y: 0,    ExpError: 1 HwErr: 1,    Exp Result: -1 Hw Res:-1,    Exp Rem: -1 Hw Rem: 0 
[119901842], op: 1, x: -140, y: 0,    ExpError: 1 HwErr: 1,    Exp Result: -1 Hw Res:-1,    Exp Rem: -1 Hw Rem: 0 
[119987730], op: 1, x: -139, y: 0,    ExpError: 1 HwErr: 1,    Exp Result: -1 Hw Res:-1,    Exp Rem: -1 Hw Rem: 0 
[120073618], op: 1, x: -138, y: 0,    ExpError: 1 HwErr: 1,    Exp Result: -1 Hw Res:-1,    Exp Rem: -1 Hw Rem: 0 
[120159506], op: 1, x: -137, y: 0,    ExpError: 1 HwErr: 1,    Exp Result: -1 Hw Res:-1,    Exp Rem: -1 Hw Rem: 0 
[120245394], op: 1, x: -136, y: 0,    ExpError: 1 HwErr: 1,    Exp Result: -1 Hw Res:-1,    Exp Rem: -1 Hw Rem: 0 
[120331282], op: 1, x: -135, y: 0,    ExpError: 1 HwErr: 1,    Exp Result: -1 Hw Res:-1,    Exp Rem: -1 Hw Rem: 0 
[120417170], op: 1, x: -134, y: 0,    ExpError: 1 HwErr: 1,    Exp Result: -1 Hw Res:-1,    Exp Rem: -1 Hw Rem: 0 
[120503058], op: 1, x: -133, y: 0,    ExpError: 1 HwErr: 1,    Exp Result: -1 Hw Res:-1,    Exp Rem: -1 Hw Rem: 0 
[120588946], op: 1, x: -132, y: 0,    ExpError: 1 HwErr: 1,    Exp Result: -1 Hw Res:-1,    Exp Rem: -1 Hw Rem: 0 
[120674834], op: 1, x: -131, y: 0,    ExpError: 1 HwErr: 1,    Exp Result: -1 Hw Res:-1,    Exp Rem: -1 Hw Rem: 0 
[120760722], op: 1, x: -130, y: 0,    ExpError: 1 HwErr: 1,    Exp Result: -1 Hw Res:-1,    Exp Rem: -1 Hw Rem: 0 
[120846610], op: 1, x: -129, y: 0,    ExpError: 1 HwErr: 1,    Exp Result: -1 Hw Res:-1,    Exp Rem: -1 Hw Rem: 0 
[120932498], op: 1, x: -128, y: 0,    ExpError: 1 HwErr: 1,    Exp Result: -1 Hw Res:-1,    Exp Rem: -1 Hw Rem: 0 
[121018386], op: 1, x: -127, y: 0,    ExpError: 1 HwErr: 1,    Exp Result: -1 Hw Res:-1,    Exp Rem: -1 Hw Rem: 0 
[121104274], op: 1, x: -126, y: 0,    ExpError: 1 HwErr: 1,    Exp Result: -1 Hw Res:-1,    Exp Rem: -1 Hw Rem: 0 
[121190162], op: 1, x: -125, y: 0,    ExpError: 1 HwErr: 1,    Exp Result: -1 Hw Res:-1,    Exp Rem: -1 Hw Rem: 0 
[121276050], op: 1, x: -124, y: 0,    ExpError: 1 HwErr: 1,    Exp Result: -1 Hw Res:-1,    Exp Rem: -1 Hw Rem: 0 
[121361938], op: 1, x: -123, y: 0,    ExpError: 1 HwErr: 1,    Exp Result: -1 Hw Res:-1,    Exp Rem: -1 Hw Rem: 0 
[121447826], op: 1, x: -122, y: 0,    ExpError: 1 HwErr: 1,    Exp Result: -1 Hw Res:-1,    Exp Rem: -1 Hw Rem: 0 
[121533714], op: 1, x: -121, y: 0,    ExpError: 1 HwErr: 1,    Exp Result: -1 Hw Res:-1,    Exp Rem: -1 Hw Rem: 0 
[121619602], op: 1, x: -120, y: 0,    ExpError: 1 HwErr: 1,    Exp Result: -1 Hw Res:-1,    Exp Rem: -1 Hw Rem: 0 
[121705490], op: 1, x: -119, y: 0,    ExpError: 1 HwErr: 1,    Exp Result: -1 Hw Res:-1,    Exp Rem: -1 Hw Rem: 0 
[121791378], op: 1, x: -118, y: 0,    ExpError: 1 HwErr: 1,    Exp Result: -1 Hw Res:-1,    Exp Rem: -1 Hw Rem: 0 
[121877266], op: 1, x: -117, y: 0,    ExpError: 1 HwErr: 1,    Exp Result: -1 Hw Res:-1,    Exp Rem: -1 Hw Rem: 0 
[121963154], op: 1, x: -116, y: 0,    ExpError: 1 HwErr: 1,    Exp Result: -1 Hw Res:-1,    Exp Rem: -1 Hw Rem: 0 
[122049042], op: 1, x: -115, y: 0,    ExpError: 1 HwErr: 1,    Exp Result: -1 Hw Res:-1,    Exp Rem: -1 Hw Rem: 0 
[122134930], op: 1, x: -114, y: 0,    ExpError: 1 HwErr: 1,    Exp Result: -1 Hw Res:-1,    Exp Rem: -1 Hw Rem: 0 
[122220818], op: 1, x: -113, y: 0,    ExpError: 1 HwErr: 1,    Exp Result: -1 Hw Res:-1,    Exp Rem: -1 Hw Rem: 0 
[122306706], op: 1, x: -112, y: 0,    ExpError: 1 HwErr: 1,    Exp Result: -1 Hw Res:-1,    Exp Rem: -1 Hw Rem: 0 
[122392594], op: 1, x: -111, y: 0,    ExpError: 1 HwErr: 1,    Exp Result: -1 Hw Res:-1,    Exp Rem: -1 Hw Rem: 0 
[122478482], op: 1, x: -110, y: 0,    ExpError: 1 HwErr: 1,    Exp Result: -1 Hw Res:-1,    Exp Rem: -1 Hw Rem: 0 
[122564370], op: 1, x: -109, y: 0,    ExpError: 1 HwErr: 1,    Exp Result: -1 Hw Res:-1,    Exp Rem: -1 Hw Rem: 0 
[122650258], op: 1, x: -108, y: 0,    ExpError: 1 HwErr: 1,    Exp Result: -1 Hw Res:-1,    Exp Rem: -1 Hw Rem: 0 
[122736146], op: 1, x: -107, y: 0,    ExpError: 1 HwErr: 1,    Exp Result: -1 Hw Res:-1,    Exp Rem: -1 Hw Rem: 0 
[122822034], op: 1, x: -106, y: 0,    ExpError: 1 HwErr: 1,    Exp Result: -1 Hw Res:-1,    Exp Rem: -1 Hw Rem: 0 
[122907922], op: 1, x: -105, y: 0,    ExpError: 1 HwErr: 1,    Exp Result: -1 Hw Res:-1,    Exp Rem: -1 Hw Rem: 0 
[122993810], op: 1, x: -104, y: 0,    ExpError: 1 HwErr: 1,    Exp Result: -1 Hw Res:-1,    Exp Rem: -1 Hw Rem: 0 
[123079698], op: 1, x: -103, y: 0,    ExpError: 1 HwErr: 1,    Exp Result: -1 Hw Res:-1,    Exp Rem: -1 Hw Rem: 0 
[123165586], op: 1, x: -102, y: 0,    ExpError: 1 HwErr: 1,    Exp Result: -1 Hw Res:-1,    Exp Rem: -1 Hw Rem: 0 
[123251474], op: 1, x: -101, y: 0,    ExpError: 1 HwErr: 1,    Exp Result: -1 Hw Res:-1,    Exp Rem: -1 Hw Rem: 0 
[123337362], op: 1, x: -100, y: 0,    ExpError: 1 HwErr: 1,    Exp Result: -1 Hw Res:-1,    Exp Rem: -1 Hw Rem: 0 
[123423250], op: 1, x: -99, y: 0,    ExpError: 1 HwErr: 1,    Exp Result: -1 Hw Res:-1,    Exp Rem: -1 Hw Rem: 0 
[123509138], op: 1, x: -98, y: 0,    ExpError: 1 HwErr: 1,    Exp Result: -1 Hw Res:-1,    Exp Rem: -1 Hw Rem: 0 
[123595026], op: 1, x: -97, y: 0,    ExpError: 1 HwErr: 1,    Exp Result: -1 Hw Res:-1,    Exp Rem: -1 Hw Rem: 0 
[123680914], op: 1, x: -96, y: 0,    ExpError: 1 HwErr: 1,    Exp Result: -1 Hw Res:-1,    Exp Rem: -1 Hw Rem: 0 
[123766802], op: 1, x: -95, y: 0,    ExpError: 1 HwErr: 1,    Exp Result: -1 Hw Res:-1,    Exp Rem: -1 Hw Rem: 0 
[123852690], op: 1, x: -94, y: 0,    ExpError: 1 HwErr: 1,    Exp Result: -1 Hw Res:-1,    Exp Rem: -1 Hw Rem: 0 
[123938578], op: 1, x: -93, y: 0,    ExpError: 1 HwErr: 1,    Exp Result: -1 Hw Res:-1,    Exp Rem: -1 Hw Rem: 0 
[124024466], op: 1, x: -92, y: 0,    ExpError: 1 HwErr: 1,    Exp Result: -1 Hw Res:-1,    Exp Rem: -1 Hw Rem: 0 
[124110354], op: 1, x: -91, y: 0,    ExpError: 1 HwErr: 1,    Exp Result: -1 Hw Res:-1,    Exp Rem: -1 Hw Rem: 0 
[124196242], op: 1, x: -90, y: 0,    ExpError: 1 HwErr: 1,    Exp Result: -1 Hw Res:-1,    Exp Rem: -1 Hw Rem: 0 
[124282130], op: 1, x: -89, y: 0,    ExpError: 1 HwErr: 1,    Exp Result: -1 Hw Res:-1,    Exp Rem: -1 Hw Rem: 0 
[124368018], op: 1, x: -88, y: 0,    ExpError: 1 HwErr: 1,    Exp Result: -1 Hw Res:-1,    Exp Rem: -1 Hw Rem: 0 
[124453906], op: 1, x: -87, y: 0,    ExpError: 1 HwErr: 1,    Exp Result: -1 Hw Res:-1,    Exp Rem: -1 Hw Rem: 0 
[124539794], op: 1, x: -86, y: 0,    ExpError: 1 HwErr: 1,    Exp Result: -1 Hw Res:-1,    Exp Rem: -1 Hw Rem: 0 
[124625682], op: 1, x: -85, y: 0,    ExpError: 1 HwErr: 1,    Exp Result: -1 Hw Res:-1,    Exp Rem: -1 Hw Rem: 0 
[124711570], op: 1, x: -84, y: 0,    ExpError: 1 HwErr: 1,    Exp Result: -1 Hw Res:-1,    Exp Rem: -1 Hw Rem: 0 
[124797458], op: 1, x: -83, y: 0,    ExpError: 1 HwErr: 1,    Exp Result: -1 Hw Res:-1,    Exp Rem: -1 Hw Rem: 0 
[124883346], op: 1, x: -82, y: 0,    ExpError: 1 HwErr: 1,    Exp Result: -1 Hw Res:-1,    Exp Rem: -1 Hw Rem: 0 
[124969234], op: 1, x: -81, y: 0,    ExpError: 1 HwErr: 1,    Exp Result: -1 Hw Res:-1,    Exp Rem: -1 Hw Rem: 0 
[125055122], op: 1, x: -80, y: 0,    ExpError: 1 HwErr: 1,    Exp Result: -1 Hw Res:-1,    Exp Rem: -1 Hw Rem: 0 
[125141010], op: 1, x: -79, y: 0,    ExpError: 1 HwErr: 1,    Exp Result: -1 Hw Res:-1,    Exp Rem: -1 Hw Rem: 0 
[125226898], op: 1, x: -78, y: 0,    ExpError: 1 HwErr: 1,    Exp Result: -1 Hw Res:-1,    Exp Rem: -1 Hw Rem: 0 
[125312786], op: 1, x: -77, y: 0,    ExpError: 1 HwErr: 1,    Exp Result: -1 Hw Res:-1,    Exp Rem: -1 Hw Rem: 0 
[125398674], op: 1, x: -76, y: 0,    ExpError: 1 HwErr: 1,    Exp Result: -1 Hw Res:-1,    Exp Rem: -1 Hw Rem: 0 
[125484562], op: 1, x: -75, y: 0,    ExpError: 1 HwErr: 1,    Exp Result: -1 Hw Res:-1,    Exp Rem: -1 Hw Rem: 0 
[125570450], op: 1, x: -74, y: 0,    ExpError: 1 HwErr: 1,    Exp Result: -1 Hw Res:-1,    Exp Rem: -1 Hw Rem: 0 
[125656338], op: 1, x: -73, y: 0,    ExpError: 1 HwErr: 1,    Exp Result: -1 Hw Res:-1,    Exp Rem: -1 Hw Rem: 0 
[125742226], op: 1, x: -72, y: 0,    ExpError: 1 HwErr: 1,    Exp Result: -1 Hw Res:-1,    Exp Rem: -1 Hw Rem: 0 
[125828114], op: 1, x: -71, y: 0,    ExpError: 1 HwErr: 1,    Exp Result: -1 Hw Res:-1,    Exp Rem: -1 Hw Rem: 0 
[125914002], op: 1, x: -70, y: 0,    ExpError: 1 HwErr: 1,    Exp Result: -1 Hw Res:-1,    Exp Rem: -1 Hw Rem: 0 
[125999890], op: 1, x: -69, y: 0,    ExpError: 1 HwErr: 1,    Exp Result: -1 Hw Res:-1,    Exp Rem: -1 Hw Rem: 0 
[126085778], op: 1, x: -68, y: 0,    ExpError: 1 HwErr: 1,    Exp Result: -1 Hw Res:-1,    Exp Rem: -1 Hw Rem: 0 
[126171666], op: 1, x: -67, y: 0,    ExpError: 1 HwErr: 1,    Exp Result: -1 Hw Res:-1,    Exp Rem: -1 Hw Rem: 0 
[126257554], op: 1, x: -66, y: 0,    ExpError: 1 HwErr: 1,    Exp Result: -1 Hw Res:-1,    Exp Rem: -1 Hw Rem: 0 
[126343442], op: 1, x: -65, y: 0,    ExpError: 1 HwErr: 1,    Exp Result: -1 Hw Res:-1,    Exp Rem: -1 Hw Rem: 0 
[126429330], op: 1, x: -64, y: 0,    ExpError: 1 HwErr: 1,    Exp Result: -1 Hw Res:-1,    Exp Rem: -1 Hw Rem: 0 
[126515218], op: 1, x: -63, y: 0,    ExpError: 1 HwErr: 1,    Exp Result: -1 Hw Res:-1,    Exp Rem: -1 Hw Rem: 0 
[126601106], op: 1, x: -62, y: 0,    ExpError: 1 HwErr: 1,    Exp Result: -1 Hw Res:-1,    Exp Rem: -1 Hw Rem: 0 
[126686994], op: 1, x: -61, y: 0,    ExpError: 1 HwErr: 1,    Exp Result: -1 Hw Res:-1,    Exp Rem: -1 Hw Rem: 0 
[126772882], op: 1, x: -60, y: 0,    ExpError: 1 HwErr: 1,    Exp Result: -1 Hw Res:-1,    Exp Rem: -1 Hw Rem: 0 
[126858770], op: 1, x: -59, y: 0,    ExpError: 1 HwErr: 1,    Exp Result: -1 Hw Res:-1,    Exp Rem: -1 Hw Rem: 0 
[126944658], op: 1, x: -58, y: 0,    ExpError: 1 HwErr: 1,    Exp Result: -1 Hw Res:-1,    Exp Rem: -1 Hw Rem: 0 
[127030546], op: 1, x: -57, y: 0,    ExpError: 1 HwErr: 1,    Exp Result: -1 Hw Res:-1,    Exp Rem: -1 Hw Rem: 0 
[127116434], op: 1, x: -56, y: 0,    ExpError: 1 HwErr: 1,    Exp Result: -1 Hw Res:-1,    Exp Rem: -1 Hw Rem: 0 
[127202322], op: 1, x: -55, y: 0,    ExpError: 1 HwErr: 1,    Exp Result: -1 Hw Res:-1,    Exp Rem: -1 Hw Rem: 0 
[127288210], op: 1, x: -54, y: 0,    ExpError: 1 HwErr: 1,    Exp Result: -1 Hw Res:-1,    Exp Rem: -1 Hw Rem: 0 
[127374098], op: 1, x: -53, y: 0,    ExpError: 1 HwErr: 1,    Exp Result: -1 Hw Res:-1,    Exp Rem: -1 Hw Rem: 0 
[127459986], op: 1, x: -52, y: 0,    ExpError: 1 HwErr: 1,    Exp Result: -1 Hw Res:-1,    Exp Rem: -1 Hw Rem: 0 
[127545874], op: 1, x: -51, y: 0,    ExpError: 1 HwErr: 1,    Exp Result: -1 Hw Res:-1,    Exp Rem: -1 Hw Rem: 0 
[127631762], op: 1, x: -50, y: 0,    ExpError: 1 HwErr: 1,    Exp Result: -1 Hw Res:-1,    Exp Rem: -1 Hw Rem: 0 
[127717650], op: 1, x: -49, y: 0,    ExpError: 1 HwErr: 1,    Exp Result: -1 Hw Res:-1,    Exp Rem: -1 Hw Rem: 0 
[127803538], op: 1, x: -48, y: 0,    ExpError: 1 HwErr: 1,    Exp Result: -1 Hw Res:-1,    Exp Rem: -1 Hw Rem: 0 
[127889426], op: 1, x: -47, y: 0,    ExpError: 1 HwErr: 1,    Exp Result: -1 Hw Res:-1,    Exp Rem: -1 Hw Rem: 0 
[127975314], op: 1, x: -46, y: 0,    ExpError: 1 HwErr: 1,    Exp Result: -1 Hw Res:-1,    Exp Rem: -1 Hw Rem: 0 
[128061202], op: 1, x: -45, y: 0,    ExpError: 1 HwErr: 1,    Exp Result: -1 Hw Res:-1,    Exp Rem: -1 Hw Rem: 0 
[128147090], op: 1, x: -44, y: 0,    ExpError: 1 HwErr: 1,    Exp Result: -1 Hw Res:-1,    Exp Rem: -1 Hw Rem: 0 
[128232978], op: 1, x: -43, y: 0,    ExpError: 1 HwErr: 1,    Exp Result: -1 Hw Res:-1,    Exp Rem: -1 Hw Rem: 0 
[128318866], op: 1, x: -42, y: 0,    ExpError: 1 HwErr: 1,    Exp Result: -1 Hw Res:-1,    Exp Rem: -1 Hw Rem: 0 
[128404754], op: 1, x: -41, y: 0,    ExpError: 1 HwErr: 1,    Exp Result: -1 Hw Res:-1,    Exp Rem: -1 Hw Rem: 0 
[128490642], op: 1, x: -40, y: 0,    ExpError: 1 HwErr: 1,    Exp Result: -1 Hw Res:-1,    Exp Rem: -1 Hw Rem: 0 
